<?xml version="1.0" encoding="UTF-8"?>
<svg height="16px" viewBox="0 0 16 16" width="16px" xmlns="http://www.w3.org/2000/svg" xmlns:xlink="http://www.w3.org/1999/xlink">
    <filter id="a" height="100%" width="100%" x="0%" y="0%">
        <feColorMatrix in="SourceGraphic" type="matrix" values="0 0 0 0 1 0 0 0 0 1 0 0 0 0 1 0 0 0 1 0"/>
    </filter>
    <mask id="b">
        <g filter="url(#a)">
            <rect fill-opacity="0.3" height="16" width="16"/>
        </g>
    </mask>
    <clipPath id="c">
        <rect height="152" width="192"/>
    </clipPath>
    <g clip-path="url(#c)" fill="none" mask="url(#b)" stroke="#d5d3cf" stroke-width="2" transform="matrix(1 0 0 1 -168 -16)">
        <path d="m 28.000824 192.000854 h 72" transform="matrix(1 0 0 1 8.49527 -156.504761)"/>
        <path d="m 28.000824 202.000854 h 72" transform="matrix(1 0 0 1 8.49527 -156.504761)"/>
        <path d="m 28.000824 212.000854 h 72" transform="matrix(1 0 0 1 8.49527 -156.504761)"/>
        <path d="m 28.000824 222.000854 h 72" transform="matrix(1 0 0 1 8.49527 -156.504761)"/>
        <path d="m 28.000824 232.000854 h 72" transform="matrix(1 0 0 1 8.49527 -156.504761)"/>
        <path d="m 28.000824 242.000854 h 72" transform="matrix(1 0 0 1 8.49527 -156.504761)"/>
        <path d="m 28.000824 252.000854 h 72" transform="matrix(1 0 0 1 8.49527 -156.504761)"/>
        <path d="m 28.000824 262.000854 h 72" transform="matrix(1 0 0 1 8.49527 -156.504761)"/>
        <path d="m 28.000824 272.000854 h 66" transform="matrix(1 0 0 1 8.49527 -156.504761)"/>
    </g>
    <path d="m 4 4 l 3.175781 3.96875 l -3.175781 3.96875 h 7 v -1.320312 h -4.246094 l 2.117188 -2.648438 l -2.117188 -2.644531 h 4.246094 v -1.324219 z m 0 0"/>
    <path d="m 9.675781 9.953125 h 1.324219 v 1.984375 h -1.324219 z m 0 0"/>
    <path d="m 9.675781 4 h 1.324219 v 1.984375 h -1.324219 z m 0 0"/>
    <path d="m 0.015625 0.015625 v 15.96875 h 15.96875 v -15.96875 z m 2 2 h 11.96875 v 11.96875 h -11.96875 z m 0 0" fill="#241f31"/>
</svg>
